states;timeInMS;size;length
1;0;9;18
2;0;14;52
3;0;24;102
4;1;32;152
5;3;40;209
6;5;50;269
7;8;58;325
8;11;66;388
9;17;75;458
10;20;85;535
11;24;94;601
12;30;101;666
13;38;111;748
14;45;124;841
15;54;132;903
16;62;142;998
17;74;153;1080
18;86;163;1165
19;99;173;1247
20;118;183;1345
21;128;194;1426
22;147;203;1513
23;168;214;1600
24;199;222;1670
25;222;238;1801
26;254;248;1885
27;281;259;1994
28;316;271;2094
29;353;279;2162
30;392;294;2307
31;445;307;2413
32;521;316;2487
33;549;329;2612
34;635;338;2696
35;700;353;2824
36;778;364;2923
37;838;375;3041
38;917;387;3133
39;1028;402;3281
40;1134;408;3330
41;1234;426;3498
42;1336;437;3601
43;1440;447;3686
44;1538;459;3808
45;1641;473;3927
46;1726;486;4040
47;1860;496;4142
48;2009;510;4292
49;2179;525;4397
50;2368;531;4502
51;2498;546;4611
52;2689;559;4740
53;2870;575;4893
54;3114;584;4974
55;3299;598;5131
56;3510;611;5214
57;3845;621;5338
58;4032;635;5476
59;4358;646;5580
60;4601;662;5733
61;4863;670;5838
62;5177;684;5964
63;5465;695;6073
64;5810;711;6197
65;6103;721;6314
66;6413;738;6466
67;6652;747;6578
68;7140;759;6717
69;7406;775;6826
70;7826;789;6967
71;8207;804;7094
72;8585;815;7232
73;8992;826;7339
74;9532;836;7447
75;10042;851;7588
76;10405;855;7649
77;10851;875;7845
78;11381;891;7993
79;11846;899;8083
80;12283;917;8218
